Estimation for External Validity - Evan Gorstein
…
samp = samp %>%
  mutate(treat = ifelse(row_number() %in% sample(100, 50), 1, 0)) %>%
  rowwise() %>%
  mutate( y = case_when(
    trust == "low" & treat == 0 ~ rnorm(1, 10, 3),
    trust == "low" & treat == 1 ~ rnorm(1, 10, 3),
    trust == "high" & treat == 0 ~ rnorm(1, 50, 10),
    trust == "high" & treat == 1 ~ rnorm(1, 125, 20) 
  ))

#Realistically assume that there's more variability among the larger responses.

samp

## # A tibble: 100 × 5
## # Rowwise: 
##    region displace trust treat     y
##    <fct>  <fct>    <fct> <dbl> <dbl>
##  1 north  high     low       1  9.09
##  2 north  high     high      0 61.6 
##  3 north  high     low       1 11.7 
##  4 north  high     low       0  6.33
##  5 north  high     low       0  7.27
##  6 north  high     low       1 12.7 
##  7 north  high     low       1  8.62
##  8 north  low      high      0 46.8 
##  9 north  high     low       0 11.5 
## 10 north  high     low       1  9.46
## # … with 90 more rows
…
